-- Merging decision tree log ---
manifest
ADDED from C:\Users\italo\Documents\Projects\MaisBarato\Mobile\MaisBaratoAdmin\android\app\src\main\AndroidManifest.xml:1:1-31:12
INJECTED from C:\Users\italo\Documents\Projects\MaisBarato\Mobile\MaisBaratoAdmin\android\app\src\main\AndroidManifest.xml:1:1-31:12
INJECTED from C:\Users\italo\Documents\Projects\MaisBarato\Mobile\MaisBaratoAdmin\android\app\src\main\AndroidManifest.xml:1:1-31:12
INJECTED from C:\Users\italo\Documents\Projects\MaisBarato\Mobile\MaisBaratoAdmin\android\app\src\main\AndroidManifest.xml:1:1-31:12
MERGED from [:react-native-maps] C:\Users\italo\Documents\Projects\MaisBarato\Mobile\MaisBaratoAdmin\node_modules\react-native-maps\lib\android\build\intermediates\library_manifest\release\AndroidManifest.xml:2:1-12:12
MERGED from [com.google.android.gms:play-services-maps:16.1.0] C:\Users\italo\.gradle\caches\transforms-1\files-1.1\play-services-maps-16.1.0.aar\9d2c5276160a0cb056e7b12d57ed0998\AndroidManifest.xml:17:1-38:12
MERGED from [com.google.android.gms:play-services-base:16.1.0] C:\Users\italo\.gradle\caches\transforms-1\files-1.1\play-services-base-16.1.0.aar\d72cb6d45a857910f1ec0f387539ad8d\AndroidManifest.xml:17:1-29:12
MERGED from [com.facebook.react:react-native:0.59.4] C:\Users\italo\.gradle\caches\transforms-1\files-1.1\react-native-0.59.4.aar\cc054c1ec7639b20ea8424ae39db8195\AndroidManifest.xml:2:1-13:12
MERGED from [com.android.support:appcompat-v7:28.0.0] C:\Users\italo\.gradle\caches\transforms-1\files-1.1\appcompat-v7-28.0.0.aar\02db28b9b56f2120d89b2d95b1b4e147\AndroidManifest.xml:17:1-22:12
MERGED from [com.google.maps.android:android-maps-utils:0.5] C:\Users\italo\.gradle\caches\transforms-1\files-1.1\android-maps-utils-0.5.aar\b2dd3783cb595f0ef0bc1ba4ea808f37\AndroidManifest.xml:2:1-13:12
MERGED from [com.google.android.gms:play-services-tasks:16.0.1] C:\Users\italo\.gradle\caches\transforms-1\files-1.1\play-services-tasks-16.0.1.aar\526097827392b7979f5409f645bcc0e9\AndroidManifest.xml:2:1-9:12
MERGED from [com.google.android.gms:play-services-basement:16.2.0] C:\Users\italo\.gradle\caches\transforms-1\files-1.1\play-services-basement-16.2.0.aar\c3854e9266c77c32b9742b08d65d10e0\AndroidManifest.xml:17:1-28:12
MERGED from [com.android.support:support-v4:26.1.0] C:\Users\italo\.gradle\caches\transforms-1\files-1.1\support-v4-26.1.0.aar\129ef014b9371f9d5c542ea8ab8521fa\AndroidManifest.xml:17:1-31:12
MERGED from [com.android.support:support-fragment:28.0.0] C:\Users\italo\.gradle\caches\transforms-1\files-1.1\support-fragment-28.0.0.aar\f360b407000d02586e7a49f059426c6c\AndroidManifest.xml:17:1-22:12
MERGED from [com.android.support:animated-vector-drawable:28.0.0] C:\Users\italo\.gradle\caches\transforms-1\files-1.1\animated-vector-drawable-28.0.0.aar\4e6badd135cf5a13bf94c2a5e04fe86e\AndroidManifest.xml:17:1-22:12
MERGED from [com.android.support:support-core-ui:28.0.0] C:\Users\italo\.gradle\caches\transforms-1\files-1.1\support-core-ui-28.0.0.aar\49529ccae7c4a32786f874885a540a6d\AndroidManifest.xml:17:1-22:12
MERGED from [com.android.support:support-core-utils:28.0.0] C:\Users\italo\.gradle\caches\transforms-1\files-1.1\support-core-utils-28.0.0.aar\d40abf8870886fc2fd21930db3f298c3\AndroidManifest.xml:17:1-22:12
MERGED from [com.android.support:support-vector-drawable:28.0.0] C:\Users\italo\.gradle\caches\transforms-1\files-1.1\support-vector-drawable-28.0.0.aar\9c9d4290e09edf0dcc06c3331725f228\AndroidManifest.xml:17:1-22:12
MERGED from [com.android.support:loader:28.0.0] C:\Users\italo\.gradle\caches\transforms-1\files-1.1\loader-28.0.0.aar\9a1ff81e74ad8489a5fe1e45345fdfd0\AndroidManifest.xml:17:1-22:12
MERGED from [com.android.support:support-media-compat:26.1.0] C:\Users\italo\.gradle\caches\transforms-1\files-1.1\support-media-compat-26.1.0.aar\d64af4cdcdbe174b3a745c0d6a59e114\AndroidManifest.xml:17:1-31:12
MERGED from [com.android.support:viewpager:28.0.0] C:\Users\italo\.gradle\caches\transforms-1\files-1.1\viewpager-28.0.0.aar\818cf036c9ec0ed82aea2385313ef1ac\AndroidManifest.xml:17:1-22:12
MERGED from [com.android.support:coordinatorlayout:28.0.0] C:\Users\italo\.gradle\caches\transforms-1\files-1.1\coordinatorlayout-28.0.0.aar\49184fef39ef226b8f0777ad3a5a1de0\AndroidManifest.xml:17:1-22:12
MERGED from [com.android.support:drawerlayout:28.0.0] C:\Users\italo\.gradle\caches\transforms-1\files-1.1\drawerlayout-28.0.0.aar\fbf3cf31643c735dbbc535930ca79abd\AndroidManifest.xml:17:1-22:12
MERGED from [com.android.support:slidingpanelayout:28.0.0] C:\Users\italo\.gradle\caches\transforms-1\files-1.1\slidingpanelayout-28.0.0.aar\c6417e2c99736d4d2863e13f2d996802\AndroidManifest.xml:17:1-22:12
MERGED from [com.android.support:customview:28.0.0] C:\Users\italo\.gradle\caches\transforms-1\files-1.1\customview-28.0.0.aar\00fdab1ecf13ac19d04898823031889a\AndroidManifest.xml:17:1-22:12
MERGED from [com.android.support:swiperefreshlayout:28.0.0] C:\Users\italo\.gradle\caches\transforms-1\files-1.1\swiperefreshlayout-28.0.0.aar\b9efa35f775b6cc4f06db4c578d7f94b\AndroidManifest.xml:17:1-22:12
MERGED from [com.android.support:asynclayoutinflater:28.0.0] C:\Users\italo\.gradle\caches\transforms-1\files-1.1\asynclayoutinflater-28.0.0.aar\d26bec68a0d5fe133a241f1707f53364\AndroidManifest.xml:17:1-22:12
MERGED from [com.android.support:support-compat:28.0.0] C:\Users\italo\.gradle\caches\transforms-1\files-1.1\support-compat-28.0.0.aar\a46ff228ada84bb8ba4f3b15f347660a\AndroidManifest.xml:17:1-24:12
MERGED from [com.android.support:versionedparcelable:28.0.0] C:\Users\italo\.gradle\caches\transforms-1\files-1.1\versionedparcelable-28.0.0.aar\6b18e8d56f29ae891e8bbe252da75a2c\AndroidManifest.xml:17:1-25:12
MERGED from [com.android.support:cursoradapter:28.0.0] C:\Users\italo\.gradle\caches\transforms-1\files-1.1\cursoradapter-28.0.0.aar\f1f2919604588e6dd1a9c6e76311ef2d\AndroidManifest.xml:17:1-22:12
MERGED from [android.arch.lifecycle:runtime:1.1.1] C:\Users\italo\.gradle\caches\transforms-1\files-1.1\runtime-1.1.1.aar\113ba5e49fff14bd6e40399407a00fb5\AndroidManifest.xml:17:1-22:12
MERGED from [com.android.support:documentfile:28.0.0] C:\Users\italo\.gradle\caches\transforms-1\files-1.1\documentfile-28.0.0.aar\5a6d0c7447956b3ac5c942087b061fcc\AndroidManifest.xml:17:1-22:12
MERGED from [com.android.support:localbroadcastmanager:28.0.0] C:\Users\italo\.gradle\caches\transforms-1\files-1.1\localbroadcastmanager-28.0.0.aar\f177dd8d0ee0d28f370658a73d5bc444\AndroidManifest.xml:17:1-22:12
MERGED from [com.android.support:print:28.0.0] C:\Users\italo\.gradle\caches\transforms-1\files-1.1\print-28.0.0.aar\6f4e13c1ded0dfa0506ea3f4dd7f9355\AndroidManifest.xml:17:1-22:12
MERGED from [android.arch.lifecycle:viewmodel:1.1.1] C:\Users\italo\.gradle\caches\transforms-1\files-1.1\viewmodel-1.1.1.aar\ddbfdbd2f4eb8e2bf0a5dbd7141d961d\AndroidManifest.xml:17:1-22:12
MERGED from [android.arch.lifecycle:livedata:1.1.1] C:\Users\italo\.gradle\caches\transforms-1\files-1.1\livedata-1.1.1.aar\9e934ed9d4bee6b4f60108c5b95a81ef\AndroidManifest.xml:17:1-22:12
MERGED from [android.arch.lifecycle:livedata-core:1.1.1] C:\Users\italo\.gradle\caches\transforms-1\files-1.1\livedata-core-1.1.1.aar\79b208fe6f4b946373c18b7985b9849d\AndroidManifest.xml:17:1-22:12
MERGED from [android.arch.core:runtime:1.1.1] C:\Users\italo\.gradle\caches\transforms-1\files-1.1\runtime-1.1.1.aar\1097d7f193d80ead4a9a8a5449593a61\AndroidManifest.xml:17:1-22:12
MERGED from [com.android.support:interpolator:28.0.0] C:\Users\italo\.gradle\caches\transforms-1\files-1.1\interpolator-28.0.0.aar\115ba85f28d14b0f616f61289fea301a\AndroidManifest.xml:17:1-22:12
MERGED from [com.facebook.fresco:fresco:1.10.0] C:\Users\italo\.gradle\caches\transforms-1\files-1.1\fresco-1.10.0.aar\1eed7a4ab6fed74c9382f06a6de280ed\AndroidManifest.xml:2:1-9:12
MERGED from [com.facebook.fresco:imagepipeline-okhttp3:1.10.0] C:\Users\italo\.gradle\caches\transforms-1\files-1.1\imagepipeline-okhttp3-1.10.0.aar\a010bfbe7acacf750153988c8b5028f1\AndroidManifest.xml:2:1-9:12
MERGED from [com.facebook.fresco:drawee:1.10.0] C:\Users\italo\.gradle\caches\transforms-1\files-1.1\drawee-1.10.0.aar\3b63483b60d30236bfc11ae9ca062263\AndroidManifest.xml:2:1-9:12
MERGED from [com.facebook.fresco:imagepipeline:1.10.0] C:\Users\italo\.gradle\caches\transforms-1\files-1.1\imagepipeline-1.10.0.aar\3d3aa7e0285350f4d9f98bbd2f40dc87\AndroidManifest.xml:2:1-9:12
MERGED from [com.facebook.fresco:imagepipeline-base:1.10.0] C:\Users\italo\.gradle\caches\transforms-1\files-1.1\imagepipeline-base-1.10.0.aar\8b60f16aa4c6d650c33e973bde4c35f3\AndroidManifest.xml:2:1-9:12
MERGED from [com.facebook.soloader:soloader:0.6.0] C:\Users\italo\.gradle\caches\transforms-1\files-1.1\soloader-0.6.0.aar\3b07d8909b433799524f8a1745bb2d10\AndroidManifest.xml:2:1-13:12
MERGED from [com.facebook.fresco:fbcore:1.10.0] C:\Users\italo\.gradle\caches\transforms-1\files-1.1\fbcore-1.10.0.aar\9f97f25c85a9ed0faab63638874a1d63\AndroidManifest.xml:2:1-9:12
INJECTED from C:\Users\italo\Documents\Projects\MaisBarato\Mobile\MaisBaratoAdmin\android\app\src\main\AndroidManifest.xml:1:1-31:12
INJECTED from C:\Users\italo\Documents\Projects\MaisBarato\Mobile\MaisBaratoAdmin\android\app\src\main\AndroidManifest.xml:1:1-31:12
INJECTED from C:\Users\italo\Documents\Projects\MaisBarato\Mobile\MaisBaratoAdmin\android\app\src\main\AndroidManifest.xml:1:1-31:12
	package
		ADDED from C:\Users\italo\Documents\Projects\MaisBarato\Mobile\MaisBaratoAdmin\android\app\src\main\AndroidManifest.xml:2:3-32
		INJECTED from C:\Users\italo\Documents\Projects\MaisBarato\Mobile\MaisBaratoAdmin\android\app\src\main\AndroidManifest.xml
		INJECTED from C:\Users\italo\Documents\Projects\MaisBarato\Mobile\MaisBaratoAdmin\android\app\src\main\AndroidManifest.xml
	android:versionName
		INJECTED from C:\Users\italo\Documents\Projects\MaisBarato\Mobile\MaisBaratoAdmin\android\app\src\main\AndroidManifest.xml
		ADDED from C:\Users\italo\Documents\Projects\MaisBarato\Mobile\MaisBaratoAdmin\android\app\src\main\AndroidManifest.xml:1:1-31:12
		INJECTED from C:\Users\italo\Documents\Projects\MaisBarato\Mobile\MaisBaratoAdmin\android\app\src\main\AndroidManifest.xml
	android:versionCode
		INJECTED from C:\Users\italo\Documents\Projects\MaisBarato\Mobile\MaisBaratoAdmin\android\app\src\main\AndroidManifest.xml
		ADDED from C:\Users\italo\Documents\Projects\MaisBarato\Mobile\MaisBaratoAdmin\android\app\src\main\AndroidManifest.xml:1:1-31:12
		INJECTED from C:\Users\italo\Documents\Projects\MaisBarato\Mobile\MaisBaratoAdmin\android\app\src\main\AndroidManifest.xml
	xmlns:android
		ADDED from C:\Users\italo\Documents\Projects\MaisBarato\Mobile\MaisBaratoAdmin\android\app\src\main\AndroidManifest.xml:1:11-69
uses-permission#android.permission.INTERNET
ADDED from C:\Users\italo\Documents\Projects\MaisBarato\Mobile\MaisBaratoAdmin\android\app\src\main\AndroidManifest.xml:4:5-67
MERGED from [:react-native-maps] C:\Users\italo\Documents\Projects\MaisBarato\Mobile\MaisBaratoAdmin\node_modules\react-native-maps\lib\android\build\intermediates\library_manifest\release\AndroidManifest.xml:9:5-67
MERGED from [:react-native-maps] C:\Users\italo\Documents\Projects\MaisBarato\Mobile\MaisBaratoAdmin\node_modules\react-native-maps\lib\android\build\intermediates\library_manifest\release\AndroidManifest.xml:9:5-67
MERGED from [com.google.android.gms:play-services-maps:16.1.0] C:\Users\italo\.gradle\caches\transforms-1\files-1.1\play-services-maps-16.1.0.aar\9d2c5276160a0cb056e7b12d57ed0998\AndroidManifest.xml:24:5-67
MERGED from [com.google.android.gms:play-services-maps:16.1.0] C:\Users\italo\.gradle\caches\transforms-1\files-1.1\play-services-maps-16.1.0.aar\9d2c5276160a0cb056e7b12d57ed0998\AndroidManifest.xml:24:5-67
	android:name
		ADDED from C:\Users\italo\Documents\Projects\MaisBarato\Mobile\MaisBaratoAdmin\android\app\src\main\AndroidManifest.xml:4:22-64
uses-permission#android.permission.SYSTEM_ALERT_WINDOW
ADDED from C:\Users\italo\Documents\Projects\MaisBarato\Mobile\MaisBaratoAdmin\android\app\src\main\AndroidManifest.xml:5:5-78
	android:name
		ADDED from C:\Users\italo\Documents\Projects\MaisBarato\Mobile\MaisBaratoAdmin\android\app\src\main\AndroidManifest.xml:5:22-75
uses-permission#android.permission.ACCESS_FINE_LOCATION
ADDED from C:\Users\italo\Documents\Projects\MaisBarato\Mobile\MaisBaratoAdmin\android\app\src\main\AndroidManifest.xml:6:5-79
	android:name
		ADDED from C:\Users\italo\Documents\Projects\MaisBarato\Mobile\MaisBaratoAdmin\android\app\src\main\AndroidManifest.xml:6:22-76
application
ADDED from C:\Users\italo\Documents\Projects\MaisBarato\Mobile\MaisBaratoAdmin\android\app\src\main\AndroidManifest.xml:8:5-29:19
MERGED from [com.google.android.gms:play-services-maps:16.1.0] C:\Users\italo\.gradle\caches\transforms-1\files-1.1\play-services-maps-16.1.0.aar\9d2c5276160a0cb056e7b12d57ed0998\AndroidManifest.xml:30:5-36:19
MERGED from [com.google.android.gms:play-services-maps:16.1.0] C:\Users\italo\.gradle\caches\transforms-1\files-1.1\play-services-maps-16.1.0.aar\9d2c5276160a0cb056e7b12d57ed0998\AndroidManifest.xml:30:5-36:19
MERGED from [com.google.android.gms:play-services-base:16.1.0] C:\Users\italo\.gradle\caches\transforms-1\files-1.1\play-services-base-16.1.0.aar\d72cb6d45a857910f1ec0f387539ad8d\AndroidManifest.xml:22:5-27:19
MERGED from [com.google.android.gms:play-services-base:16.1.0] C:\Users\italo\.gradle\caches\transforms-1\files-1.1\play-services-base-16.1.0.aar\d72cb6d45a857910f1ec0f387539ad8d\AndroidManifest.xml:22:5-27:19
MERGED from [com.facebook.react:react-native:0.59.4] C:\Users\italo\.gradle\caches\transforms-1\files-1.1\react-native-0.59.4.aar\cc054c1ec7639b20ea8424ae39db8195\AndroidManifest.xml:11:5-20
MERGED from [com.facebook.react:react-native:0.59.4] C:\Users\italo\.gradle\caches\transforms-1\files-1.1\react-native-0.59.4.aar\cc054c1ec7639b20ea8424ae39db8195\AndroidManifest.xml:11:5-20
MERGED from [com.google.maps.android:android-maps-utils:0.5] C:\Users\italo\.gradle\caches\transforms-1\files-1.1\android-maps-utils-0.5.aar\b2dd3783cb595f0ef0bc1ba4ea808f37\AndroidManifest.xml:7:5-11:19
MERGED from [com.google.maps.android:android-maps-utils:0.5] C:\Users\italo\.gradle\caches\transforms-1\files-1.1\android-maps-utils-0.5.aar\b2dd3783cb595f0ef0bc1ba4ea808f37\AndroidManifest.xml:7:5-11:19
MERGED from [com.google.android.gms:play-services-tasks:16.0.1] C:\Users\italo\.gradle\caches\transforms-1\files-1.1\play-services-tasks-16.0.1.aar\526097827392b7979f5409f645bcc0e9\AndroidManifest.xml:7:5-20
MERGED from [com.google.android.gms:play-services-tasks:16.0.1] C:\Users\italo\.gradle\caches\transforms-1\files-1.1\play-services-tasks-16.0.1.aar\526097827392b7979f5409f645bcc0e9\AndroidManifest.xml:7:5-20
MERGED from [com.google.android.gms:play-services-basement:16.2.0] C:\Users\italo\.gradle\caches\transforms-1\files-1.1\play-services-basement-16.2.0.aar\c3854e9266c77c32b9742b08d65d10e0\AndroidManifest.xml:22:5-26:19
MERGED from [com.google.android.gms:play-services-basement:16.2.0] C:\Users\italo\.gradle\caches\transforms-1\files-1.1\play-services-basement-16.2.0.aar\c3854e9266c77c32b9742b08d65d10e0\AndroidManifest.xml:22:5-26:19
MERGED from [com.android.support:support-v4:26.1.0] C:\Users\italo\.gradle\caches\transforms-1\files-1.1\support-v4-26.1.0.aar\129ef014b9371f9d5c542ea8ab8521fa\AndroidManifest.xml:25:5-29:19
MERGED from [com.android.support:support-v4:26.1.0] C:\Users\italo\.gradle\caches\transforms-1\files-1.1\support-v4-26.1.0.aar\129ef014b9371f9d5c542ea8ab8521fa\AndroidManifest.xml:25:5-29:19
MERGED from [com.android.support:support-media-compat:26.1.0] C:\Users\italo\.gradle\caches\transforms-1\files-1.1\support-media-compat-26.1.0.aar\d64af4cdcdbe174b3a745c0d6a59e114\AndroidManifest.xml:25:5-29:19
MERGED from [com.android.support:support-media-compat:26.1.0] C:\Users\italo\.gradle\caches\transforms-1\files-1.1\support-media-compat-26.1.0.aar\d64af4cdcdbe174b3a745c0d6a59e114\AndroidManifest.xml:25:5-29:19
MERGED from [com.android.support:support-compat:28.0.0] C:\Users\italo\.gradle\caches\transforms-1\files-1.1\support-compat-28.0.0.aar\a46ff228ada84bb8ba4f3b15f347660a\AndroidManifest.xml:22:5-94
MERGED from [com.android.support:support-compat:28.0.0] C:\Users\italo\.gradle\caches\transforms-1\files-1.1\support-compat-28.0.0.aar\a46ff228ada84bb8ba4f3b15f347660a\AndroidManifest.xml:22:5-94
MERGED from [com.android.support:versionedparcelable:28.0.0] C:\Users\italo\.gradle\caches\transforms-1\files-1.1\versionedparcelable-28.0.0.aar\6b18e8d56f29ae891e8bbe252da75a2c\AndroidManifest.xml:22:5-23:19
MERGED from [com.android.support:versionedparcelable:28.0.0] C:\Users\italo\.gradle\caches\transforms-1\files-1.1\versionedparcelable-28.0.0.aar\6b18e8d56f29ae891e8bbe252da75a2c\AndroidManifest.xml:22:5-23:19
MERGED from [com.facebook.soloader:soloader:0.6.0] C:\Users\italo\.gradle\caches\transforms-1\files-1.1\soloader-0.6.0.aar\3b07d8909b433799524f8a1745bb2d10\AndroidManifest.xml:11:5-20
MERGED from [com.facebook.soloader:soloader:0.6.0] C:\Users\italo\.gradle\caches\transforms-1\files-1.1\soloader-0.6.0.aar\3b07d8909b433799524f8a1745bb2d10\AndroidManifest.xml:11:5-20
	android:appComponentFactory
		ADDED from [com.android.support:support-compat:28.0.0] C:\Users\italo\.gradle\caches\transforms-1\files-1.1\support-compat-28.0.0.aar\a46ff228ada84bb8ba4f3b15f347660a\AndroidManifest.xml:22:18-91
	android:label
		ADDED from C:\Users\italo\Documents\Projects\MaisBarato\Mobile\MaisBaratoAdmin\android\app\src\main\AndroidManifest.xml:10:7-39
	android:roundIcon
		ADDED from C:\Users\italo\Documents\Projects\MaisBarato\Mobile\MaisBaratoAdmin\android\app\src\main\AndroidManifest.xml:12:7-52
	android:icon
		ADDED from C:\Users\italo\Documents\Projects\MaisBarato\Mobile\MaisBaratoAdmin\android\app\src\main\AndroidManifest.xml:11:7-41
	android:allowBackup
		ADDED from C:\Users\italo\Documents\Projects\MaisBarato\Mobile\MaisBaratoAdmin\android\app\src\main\AndroidManifest.xml:13:7-34
	android:theme
		ADDED from C:\Users\italo\Documents\Projects\MaisBarato\Mobile\MaisBaratoAdmin\android\app\src\main\AndroidManifest.xml:14:7-38
	android:name
		ADDED from C:\Users\italo\Documents\Projects\MaisBarato\Mobile\MaisBaratoAdmin\android\app\src\main\AndroidManifest.xml:9:7-38
meta-data#com.google.android.geo.API_KEY
ADDED from C:\Users\italo\Documents\Projects\MaisBarato\Mobile\MaisBaratoAdmin\android\app\src\main\AndroidManifest.xml:15:7-17:66
	android:value
		ADDED from C:\Users\italo\Documents\Projects\MaisBarato\Mobile\MaisBaratoAdmin\android\app\src\main\AndroidManifest.xml:17:9-64
	android:name
		ADDED from C:\Users\italo\Documents\Projects\MaisBarato\Mobile\MaisBaratoAdmin\android\app\src\main\AndroidManifest.xml:16:9-54
activity#com.maisbaratoadmin.MainActivity
ADDED from C:\Users\italo\Documents\Projects\MaisBarato\Mobile\MaisBaratoAdmin\android\app\src\main\AndroidManifest.xml:18:7-27:18
	android:label
		ADDED from C:\Users\italo\Documents\Projects\MaisBarato\Mobile\MaisBaratoAdmin\android\app\src\main\AndroidManifest.xml:20:9-41
	android:windowSoftInputMode
		ADDED from C:\Users\italo\Documents\Projects\MaisBarato\Mobile\MaisBaratoAdmin\android\app\src\main\AndroidManifest.xml:22:9-51
	android:configChanges
		ADDED from C:\Users\italo\Documents\Projects\MaisBarato\Mobile\MaisBaratoAdmin\android\app\src\main\AndroidManifest.xml:21:9-79
	android:name
		ADDED from C:\Users\italo\Documents\Projects\MaisBarato\Mobile\MaisBaratoAdmin\android\app\src\main\AndroidManifest.xml:19:9-37
intent-filter#action:name:android.intent.action.MAIN+category:name:android.intent.category.LAUNCHER
ADDED from C:\Users\italo\Documents\Projects\MaisBarato\Mobile\MaisBaratoAdmin\android\app\src\main\AndroidManifest.xml:23:9-26:25
action#android.intent.action.MAIN
ADDED from C:\Users\italo\Documents\Projects\MaisBarato\Mobile\MaisBaratoAdmin\android\app\src\main\AndroidManifest.xml:24:13-65
	android:name
		ADDED from C:\Users\italo\Documents\Projects\MaisBarato\Mobile\MaisBaratoAdmin\android\app\src\main\AndroidManifest.xml:24:21-62
category#android.intent.category.LAUNCHER
ADDED from C:\Users\italo\Documents\Projects\MaisBarato\Mobile\MaisBaratoAdmin\android\app\src\main\AndroidManifest.xml:25:13-73
	android:name
		ADDED from C:\Users\italo\Documents\Projects\MaisBarato\Mobile\MaisBaratoAdmin\android\app\src\main\AndroidManifest.xml:25:23-70
activity#com.facebook.react.devsupport.DevSettingsActivity
ADDED from C:\Users\italo\Documents\Projects\MaisBarato\Mobile\MaisBaratoAdmin\android\app\src\main\AndroidManifest.xml:28:7-84
	android:name
		ADDED from C:\Users\italo\Documents\Projects\MaisBarato\Mobile\MaisBaratoAdmin\android\app\src\main\AndroidManifest.xml:28:17-81
uses-sdk
INJECTED from C:\Users\italo\Documents\Projects\MaisBarato\Mobile\MaisBaratoAdmin\android\app\src\main\AndroidManifest.xml reason: use-sdk injection requested
INJECTED from C:\Users\italo\Documents\Projects\MaisBarato\Mobile\MaisBaratoAdmin\android\app\src\main\AndroidManifest.xml
INJECTED from C:\Users\italo\Documents\Projects\MaisBarato\Mobile\MaisBaratoAdmin\android\app\src\main\AndroidManifest.xml
MERGED from [:react-native-maps] C:\Users\italo\Documents\Projects\MaisBarato\Mobile\MaisBaratoAdmin\node_modules\react-native-maps\lib\android\build\intermediates\library_manifest\release\AndroidManifest.xml:5:5-7:41
MERGED from [:react-native-maps] C:\Users\italo\Documents\Projects\MaisBarato\Mobile\MaisBaratoAdmin\node_modules\react-native-maps\lib\android\build\intermediates\library_manifest\release\AndroidManifest.xml:5:5-7:41
MERGED from [com.google.android.gms:play-services-maps:16.1.0] C:\Users\italo\.gradle\caches\transforms-1\files-1.1\play-services-maps-16.1.0.aar\9d2c5276160a0cb056e7b12d57ed0998\AndroidManifest.xml:20:5-44
MERGED from [com.google.android.gms:play-services-maps:16.1.0] C:\Users\italo\.gradle\caches\transforms-1\files-1.1\play-services-maps-16.1.0.aar\9d2c5276160a0cb056e7b12d57ed0998\AndroidManifest.xml:20:5-44
MERGED from [com.google.android.gms:play-services-base:16.1.0] C:\Users\italo\.gradle\caches\transforms-1\files-1.1\play-services-base-16.1.0.aar\d72cb6d45a857910f1ec0f387539ad8d\AndroidManifest.xml:20:5-44
MERGED from [com.google.android.gms:play-services-base:16.1.0] C:\Users\italo\.gradle\caches\transforms-1\files-1.1\play-services-base-16.1.0.aar\d72cb6d45a857910f1ec0f387539ad8d\AndroidManifest.xml:20:5-44
MERGED from [com.facebook.react:react-native:0.59.4] C:\Users\italo\.gradle\caches\transforms-1\files-1.1\react-native-0.59.4.aar\cc054c1ec7639b20ea8424ae39db8195\AndroidManifest.xml:7:5-9:41
MERGED from [com.facebook.react:react-native:0.59.4] C:\Users\italo\.gradle\caches\transforms-1\files-1.1\react-native-0.59.4.aar\cc054c1ec7639b20ea8424ae39db8195\AndroidManifest.xml:7:5-9:41
MERGED from [com.android.support:appcompat-v7:28.0.0] C:\Users\italo\.gradle\caches\transforms-1\files-1.1\appcompat-v7-28.0.0.aar\02db28b9b56f2120d89b2d95b1b4e147\AndroidManifest.xml:20:5-44
MERGED from [com.android.support:appcompat-v7:28.0.0] C:\Users\italo\.gradle\caches\transforms-1\files-1.1\appcompat-v7-28.0.0.aar\02db28b9b56f2120d89b2d95b1b4e147\AndroidManifest.xml:20:5-44
MERGED from [com.google.maps.android:android-maps-utils:0.5] C:\Users\italo\.gradle\caches\transforms-1\files-1.1\android-maps-utils-0.5.aar\b2dd3783cb595f0ef0bc1ba4ea808f37\AndroidManifest.xml:5:5-43
MERGED from [com.google.maps.android:android-maps-utils:0.5] C:\Users\italo\.gradle\caches\transforms-1\files-1.1\android-maps-utils-0.5.aar\b2dd3783cb595f0ef0bc1ba4ea808f37\AndroidManifest.xml:5:5-43
MERGED from [com.google.android.gms:play-services-tasks:16.0.1] C:\Users\italo\.gradle\caches\transforms-1\files-1.1\play-services-tasks-16.0.1.aar\526097827392b7979f5409f645bcc0e9\AndroidManifest.xml:5:5-44
MERGED from [com.google.android.gms:play-services-tasks:16.0.1] C:\Users\italo\.gradle\caches\transforms-1\files-1.1\play-services-tasks-16.0.1.aar\526097827392b7979f5409f645bcc0e9\AndroidManifest.xml:5:5-44
MERGED from [com.google.android.gms:play-services-basement:16.2.0] C:\Users\italo\.gradle\caches\transforms-1\files-1.1\play-services-basement-16.2.0.aar\c3854e9266c77c32b9742b08d65d10e0\AndroidManifest.xml:20:5-44
MERGED from [com.google.android.gms:play-services-basement:16.2.0] C:\Users\italo\.gradle\caches\transforms-1\files-1.1\play-services-basement-16.2.0.aar\c3854e9266c77c32b9742b08d65d10e0\AndroidManifest.xml:20:5-44
MERGED from [com.android.support:support-v4:26.1.0] C:\Users\italo\.gradle\caches\transforms-1\files-1.1\support-v4-26.1.0.aar\129ef014b9371f9d5c542ea8ab8521fa\AndroidManifest.xml:21:5-23:54
MERGED from [com.android.support:support-v4:26.1.0] C:\Users\italo\.gradle\caches\transforms-1\files-1.1\support-v4-26.1.0.aar\129ef014b9371f9d5c542ea8ab8521fa\AndroidManifest.xml:21:5-23:54
MERGED from [com.android.support:support-fragment:28.0.0] C:\Users\italo\.gradle\caches\transforms-1\files-1.1\support-fragment-28.0.0.aar\f360b407000d02586e7a49f059426c6c\AndroidManifest.xml:20:5-44
MERGED from [com.android.support:support-fragment:28.0.0] C:\Users\italo\.gradle\caches\transforms-1\files-1.1\support-fragment-28.0.0.aar\f360b407000d02586e7a49f059426c6c\AndroidManifest.xml:20:5-44
MERGED from [com.android.support:animated-vector-drawable:28.0.0] C:\Users\italo\.gradle\caches\transforms-1\files-1.1\animated-vector-drawable-28.0.0.aar\4e6badd135cf5a13bf94c2a5e04fe86e\AndroidManifest.xml:20:5-44
MERGED from [com.android.support:animated-vector-drawable:28.0.0] C:\Users\italo\.gradle\caches\transforms-1\files-1.1\animated-vector-drawable-28.0.0.aar\4e6badd135cf5a13bf94c2a5e04fe86e\AndroidManifest.xml:20:5-44
MERGED from [com.android.support:support-core-ui:28.0.0] C:\Users\italo\.gradle\caches\transforms-1\files-1.1\support-core-ui-28.0.0.aar\49529ccae7c4a32786f874885a540a6d\AndroidManifest.xml:20:5-44
MERGED from [com.android.support:support-core-ui:28.0.0] C:\Users\italo\.gradle\caches\transforms-1\files-1.1\support-core-ui-28.0.0.aar\49529ccae7c4a32786f874885a540a6d\AndroidManifest.xml:20:5-44
MERGED from [com.android.support:support-core-utils:28.0.0] C:\Users\italo\.gradle\caches\transforms-1\files-1.1\support-core-utils-28.0.0.aar\d40abf8870886fc2fd21930db3f298c3\AndroidManifest.xml:20:5-44
MERGED from [com.android.support:support-core-utils:28.0.0] C:\Users\italo\.gradle\caches\transforms-1\files-1.1\support-core-utils-28.0.0.aar\d40abf8870886fc2fd21930db3f298c3\AndroidManifest.xml:20:5-44
MERGED from [com.android.support:support-vector-drawable:28.0.0] C:\Users\italo\.gradle\caches\transforms-1\files-1.1\support-vector-drawable-28.0.0.aar\9c9d4290e09edf0dcc06c3331725f228\AndroidManifest.xml:20:5-44
MERGED from [com.android.support:support-vector-drawable:28.0.0] C:\Users\italo\.gradle\caches\transforms-1\files-1.1\support-vector-drawable-28.0.0.aar\9c9d4290e09edf0dcc06c3331725f228\AndroidManifest.xml:20:5-44
MERGED from [com.android.support:loader:28.0.0] C:\Users\italo\.gradle\caches\transforms-1\files-1.1\loader-28.0.0.aar\9a1ff81e74ad8489a5fe1e45345fdfd0\AndroidManifest.xml:20:5-44
MERGED from [com.android.support:loader:28.0.0] C:\Users\italo\.gradle\caches\transforms-1\files-1.1\loader-28.0.0.aar\9a1ff81e74ad8489a5fe1e45345fdfd0\AndroidManifest.xml:20:5-44
MERGED from [com.android.support:support-media-compat:26.1.0] C:\Users\italo\.gradle\caches\transforms-1\files-1.1\support-media-compat-26.1.0.aar\d64af4cdcdbe174b3a745c0d6a59e114\AndroidManifest.xml:21:5-23:63
MERGED from [com.android.support:support-media-compat:26.1.0] C:\Users\italo\.gradle\caches\transforms-1\files-1.1\support-media-compat-26.1.0.aar\d64af4cdcdbe174b3a745c0d6a59e114\AndroidManifest.xml:21:5-23:63
MERGED from [com.android.support:viewpager:28.0.0] C:\Users\italo\.gradle\caches\transforms-1\files-1.1\viewpager-28.0.0.aar\818cf036c9ec0ed82aea2385313ef1ac\AndroidManifest.xml:20:5-44
MERGED from [com.android.support:viewpager:28.0.0] C:\Users\italo\.gradle\caches\transforms-1\files-1.1\viewpager-28.0.0.aar\818cf036c9ec0ed82aea2385313ef1ac\AndroidManifest.xml:20:5-44
MERGED from [com.android.support:coordinatorlayout:28.0.0] C:\Users\italo\.gradle\caches\transforms-1\files-1.1\coordinatorlayout-28.0.0.aar\49184fef39ef226b8f0777ad3a5a1de0\AndroidManifest.xml:20:5-44
MERGED from [com.android.support:coordinatorlayout:28.0.0] C:\Users\italo\.gradle\caches\transforms-1\files-1.1\coordinatorlayout-28.0.0.aar\49184fef39ef226b8f0777ad3a5a1de0\AndroidManifest.xml:20:5-44
MERGED from [com.android.support:drawerlayout:28.0.0] C:\Users\italo\.gradle\caches\transforms-1\files-1.1\drawerlayout-28.0.0.aar\fbf3cf31643c735dbbc535930ca79abd\AndroidManifest.xml:20:5-44
MERGED from [com.android.support:drawerlayout:28.0.0] C:\Users\italo\.gradle\caches\transforms-1\files-1.1\drawerlayout-28.0.0.aar\fbf3cf31643c735dbbc535930ca79abd\AndroidManifest.xml:20:5-44
MERGED from [com.android.support:slidingpanelayout:28.0.0] C:\Users\italo\.gradle\caches\transforms-1\files-1.1\slidingpanelayout-28.0.0.aar\c6417e2c99736d4d2863e13f2d996802\AndroidManifest.xml:20:5-44
MERGED from [com.android.support:slidingpanelayout:28.0.0] C:\Users\italo\.gradle\caches\transforms-1\files-1.1\slidingpanelayout-28.0.0.aar\c6417e2c99736d4d2863e13f2d996802\AndroidManifest.xml:20:5-44
MERGED from [com.android.support:customview:28.0.0] C:\Users\italo\.gradle\caches\transforms-1\files-1.1\customview-28.0.0.aar\00fdab1ecf13ac19d04898823031889a\AndroidManifest.xml:20:5-44
MERGED from [com.android.support:customview:28.0.0] C:\Users\italo\.gradle\caches\transforms-1\files-1.1\customview-28.0.0.aar\00fdab1ecf13ac19d04898823031889a\AndroidManifest.xml:20:5-44
MERGED from [com.android.support:swiperefreshlayout:28.0.0] C:\Users\italo\.gradle\caches\transforms-1\files-1.1\swiperefreshlayout-28.0.0.aar\b9efa35f775b6cc4f06db4c578d7f94b\AndroidManifest.xml:20:5-44
MERGED from [com.android.support:swiperefreshlayout:28.0.0] C:\Users\italo\.gradle\caches\transforms-1\files-1.1\swiperefreshlayout-28.0.0.aar\b9efa35f775b6cc4f06db4c578d7f94b\AndroidManifest.xml:20:5-44
MERGED from [com.android.support:asynclayoutinflater:28.0.0] C:\Users\italo\.gradle\caches\transforms-1\files-1.1\asynclayoutinflater-28.0.0.aar\d26bec68a0d5fe133a241f1707f53364\AndroidManifest.xml:20:5-44
MERGED from [com.android.support:asynclayoutinflater:28.0.0] C:\Users\italo\.gradle\caches\transforms-1\files-1.1\asynclayoutinflater-28.0.0.aar\d26bec68a0d5fe133a241f1707f53364\AndroidManifest.xml:20:5-44
MERGED from [com.android.support:support-compat:28.0.0] C:\Users\italo\.gradle\caches\transforms-1\files-1.1\support-compat-28.0.0.aar\a46ff228ada84bb8ba4f3b15f347660a\AndroidManifest.xml:20:5-44
MERGED from [com.android.support:support-compat:28.0.0] C:\Users\italo\.gradle\caches\transforms-1\files-1.1\support-compat-28.0.0.aar\a46ff228ada84bb8ba4f3b15f347660a\AndroidManifest.xml:20:5-44
MERGED from [com.android.support:versionedparcelable:28.0.0] C:\Users\italo\.gradle\caches\transforms-1\files-1.1\versionedparcelable-28.0.0.aar\6b18e8d56f29ae891e8bbe252da75a2c\AndroidManifest.xml:20:5-44
MERGED from [com.android.support:versionedparcelable:28.0.0] C:\Users\italo\.gradle\caches\transforms-1\files-1.1\versionedparcelable-28.0.0.aar\6b18e8d56f29ae891e8bbe252da75a2c\AndroidManifest.xml:20:5-44
MERGED from [com.android.support:cursoradapter:28.0.0] C:\Users\italo\.gradle\caches\transforms-1\files-1.1\cursoradapter-28.0.0.aar\f1f2919604588e6dd1a9c6e76311ef2d\AndroidManifest.xml:20:5-44
MERGED from [com.android.support:cursoradapter:28.0.0] C:\Users\italo\.gradle\caches\transforms-1\files-1.1\cursoradapter-28.0.0.aar\f1f2919604588e6dd1a9c6e76311ef2d\AndroidManifest.xml:20:5-44
MERGED from [android.arch.lifecycle:runtime:1.1.1] C:\Users\italo\.gradle\caches\transforms-1\files-1.1\runtime-1.1.1.aar\113ba5e49fff14bd6e40399407a00fb5\AndroidManifest.xml:20:5-44
MERGED from [android.arch.lifecycle:runtime:1.1.1] C:\Users\italo\.gradle\caches\transforms-1\files-1.1\runtime-1.1.1.aar\113ba5e49fff14bd6e40399407a00fb5\AndroidManifest.xml:20:5-44
MERGED from [com.android.support:documentfile:28.0.0] C:\Users\italo\.gradle\caches\transforms-1\files-1.1\documentfile-28.0.0.aar\5a6d0c7447956b3ac5c942087b061fcc\AndroidManifest.xml:20:5-44
MERGED from [com.android.support:documentfile:28.0.0] C:\Users\italo\.gradle\caches\transforms-1\files-1.1\documentfile-28.0.0.aar\5a6d0c7447956b3ac5c942087b061fcc\AndroidManifest.xml:20:5-44
MERGED from [com.android.support:localbroadcastmanager:28.0.0] C:\Users\italo\.gradle\caches\transforms-1\files-1.1\localbroadcastmanager-28.0.0.aar\f177dd8d0ee0d28f370658a73d5bc444\AndroidManifest.xml:20:5-44
MERGED from [com.android.support:localbroadcastmanager:28.0.0] C:\Users\italo\.gradle\caches\transforms-1\files-1.1\localbroadcastmanager-28.0.0.aar\f177dd8d0ee0d28f370658a73d5bc444\AndroidManifest.xml:20:5-44
MERGED from [com.android.support:print:28.0.0] C:\Users\italo\.gradle\caches\transforms-1\files-1.1\print-28.0.0.aar\6f4e13c1ded0dfa0506ea3f4dd7f9355\AndroidManifest.xml:20:5-44
MERGED from [com.android.support:print:28.0.0] C:\Users\italo\.gradle\caches\transforms-1\files-1.1\print-28.0.0.aar\6f4e13c1ded0dfa0506ea3f4dd7f9355\AndroidManifest.xml:20:5-44
MERGED from [android.arch.lifecycle:viewmodel:1.1.1] C:\Users\italo\.gradle\caches\transforms-1\files-1.1\viewmodel-1.1.1.aar\ddbfdbd2f4eb8e2bf0a5dbd7141d961d\AndroidManifest.xml:20:5-44
MERGED from [android.arch.lifecycle:viewmodel:1.1.1] C:\Users\italo\.gradle\caches\transforms-1\files-1.1\viewmodel-1.1.1.aar\ddbfdbd2f4eb8e2bf0a5dbd7141d961d\AndroidManifest.xml:20:5-44
MERGED from [android.arch.lifecycle:livedata:1.1.1] C:\Users\italo\.gradle\caches\transforms-1\files-1.1\livedata-1.1.1.aar\9e934ed9d4bee6b4f60108c5b95a81ef\AndroidManifest.xml:20:5-44
MERGED from [android.arch.lifecycle:livedata:1.1.1] C:\Users\italo\.gradle\caches\transforms-1\files-1.1\livedata-1.1.1.aar\9e934ed9d4bee6b4f60108c5b95a81ef\AndroidManifest.xml:20:5-44
MERGED from [android.arch.lifecycle:livedata-core:1.1.1] C:\Users\italo\.gradle\caches\transforms-1\files-1.1\livedata-core-1.1.1.aar\79b208fe6f4b946373c18b7985b9849d\AndroidManifest.xml:20:5-44
MERGED from [android.arch.lifecycle:livedata-core:1.1.1] C:\Users\italo\.gradle\caches\transforms-1\files-1.1\livedata-core-1.1.1.aar\79b208fe6f4b946373c18b7985b9849d\AndroidManifest.xml:20:5-44
MERGED from [android.arch.core:runtime:1.1.1] C:\Users\italo\.gradle\caches\transforms-1\files-1.1\runtime-1.1.1.aar\1097d7f193d80ead4a9a8a5449593a61\AndroidManifest.xml:20:5-44
MERGED from [android.arch.core:runtime:1.1.1] C:\Users\italo\.gradle\caches\transforms-1\files-1.1\runtime-1.1.1.aar\1097d7f193d80ead4a9a8a5449593a61\AndroidManifest.xml:20:5-44
MERGED from [com.android.support:interpolator:28.0.0] C:\Users\italo\.gradle\caches\transforms-1\files-1.1\interpolator-28.0.0.aar\115ba85f28d14b0f616f61289fea301a\AndroidManifest.xml:20:5-44
MERGED from [com.android.support:interpolator:28.0.0] C:\Users\italo\.gradle\caches\transforms-1\files-1.1\interpolator-28.0.0.aar\115ba85f28d14b0f616f61289fea301a\AndroidManifest.xml:20:5-44
MERGED from [com.facebook.fresco:fresco:1.10.0] C:\Users\italo\.gradle\caches\transforms-1\files-1.1\fresco-1.10.0.aar\1eed7a4ab6fed74c9382f06a6de280ed\AndroidManifest.xml:5:5-7:41
MERGED from [com.facebook.fresco:fresco:1.10.0] C:\Users\italo\.gradle\caches\transforms-1\files-1.1\fresco-1.10.0.aar\1eed7a4ab6fed74c9382f06a6de280ed\AndroidManifest.xml:5:5-7:41
MERGED from [com.facebook.fresco:imagepipeline-okhttp3:1.10.0] C:\Users\italo\.gradle\caches\transforms-1\files-1.1\imagepipeline-okhttp3-1.10.0.aar\a010bfbe7acacf750153988c8b5028f1\AndroidManifest.xml:5:5-7:41
MERGED from [com.facebook.fresco:imagepipeline-okhttp3:1.10.0] C:\Users\italo\.gradle\caches\transforms-1\files-1.1\imagepipeline-okhttp3-1.10.0.aar\a010bfbe7acacf750153988c8b5028f1\AndroidManifest.xml:5:5-7:41
MERGED from [com.facebook.fresco:drawee:1.10.0] C:\Users\italo\.gradle\caches\transforms-1\files-1.1\drawee-1.10.0.aar\3b63483b60d30236bfc11ae9ca062263\AndroidManifest.xml:5:5-7:41
MERGED from [com.facebook.fresco:drawee:1.10.0] C:\Users\italo\.gradle\caches\transforms-1\files-1.1\drawee-1.10.0.aar\3b63483b60d30236bfc11ae9ca062263\AndroidManifest.xml:5:5-7:41
MERGED from [com.facebook.fresco:imagepipeline:1.10.0] C:\Users\italo\.gradle\caches\transforms-1\files-1.1\imagepipeline-1.10.0.aar\3d3aa7e0285350f4d9f98bbd2f40dc87\AndroidManifest.xml:5:5-7:41
MERGED from [com.facebook.fresco:imagepipeline:1.10.0] C:\Users\italo\.gradle\caches\transforms-1\files-1.1\imagepipeline-1.10.0.aar\3d3aa7e0285350f4d9f98bbd2f40dc87\AndroidManifest.xml:5:5-7:41
MERGED from [com.facebook.fresco:imagepipeline-base:1.10.0] C:\Users\italo\.gradle\caches\transforms-1\files-1.1\imagepipeline-base-1.10.0.aar\8b60f16aa4c6d650c33e973bde4c35f3\AndroidManifest.xml:5:5-7:41
MERGED from [com.facebook.fresco:imagepipeline-base:1.10.0] C:\Users\italo\.gradle\caches\transforms-1\files-1.1\imagepipeline-base-1.10.0.aar\8b60f16aa4c6d650c33e973bde4c35f3\AndroidManifest.xml:5:5-7:41
MERGED from [com.facebook.soloader:soloader:0.6.0] C:\Users\italo\.gradle\caches\transforms-1\files-1.1\soloader-0.6.0.aar\3b07d8909b433799524f8a1745bb2d10\AndroidManifest.xml:7:5-9:41
MERGED from [com.facebook.soloader:soloader:0.6.0] C:\Users\italo\.gradle\caches\transforms-1\files-1.1\soloader-0.6.0.aar\3b07d8909b433799524f8a1745bb2d10\AndroidManifest.xml:7:5-9:41
MERGED from [com.facebook.fresco:fbcore:1.10.0] C:\Users\italo\.gradle\caches\transforms-1\files-1.1\fbcore-1.10.0.aar\9f97f25c85a9ed0faab63638874a1d63\AndroidManifest.xml:5:5-7:41
MERGED from [com.facebook.fresco:fbcore:1.10.0] C:\Users\italo\.gradle\caches\transforms-1\files-1.1\fbcore-1.10.0.aar\9f97f25c85a9ed0faab63638874a1d63\AndroidManifest.xml:5:5-7:41
INJECTED from C:\Users\italo\Documents\Projects\MaisBarato\Mobile\MaisBaratoAdmin\android\app\src\main\AndroidManifest.xml
INJECTED from C:\Users\italo\Documents\Projects\MaisBarato\Mobile\MaisBaratoAdmin\android\app\src\main\AndroidManifest.xml
	tools:overrideLibrary
		ADDED from [com.android.support:support-v4:26.1.0] C:\Users\italo\.gradle\caches\transforms-1\files-1.1\support-v4-26.1.0.aar\129ef014b9371f9d5c542ea8ab8521fa\AndroidManifest.xml:23:9-51
	android:targetSdkVersion
		INJECTED from C:\Users\italo\Documents\Projects\MaisBarato\Mobile\MaisBaratoAdmin\android\app\src\main\AndroidManifest.xml
		ADDED from C:\Users\italo\Documents\Projects\MaisBarato\Mobile\MaisBaratoAdmin\android\app\src\main\AndroidManifest.xml
		INJECTED from C:\Users\italo\Documents\Projects\MaisBarato\Mobile\MaisBaratoAdmin\android\app\src\main\AndroidManifest.xml
	android:minSdkVersion
		INJECTED from C:\Users\italo\Documents\Projects\MaisBarato\Mobile\MaisBaratoAdmin\android\app\src\main\AndroidManifest.xml
		ADDED from C:\Users\italo\Documents\Projects\MaisBarato\Mobile\MaisBaratoAdmin\android\app\src\main\AndroidManifest.xml
		INJECTED from C:\Users\italo\Documents\Projects\MaisBarato\Mobile\MaisBaratoAdmin\android\app\src\main\AndroidManifest.xml
uses-permission#android.permission.ACCESS_COARSE_LOCATION
ADDED from [:react-native-maps] C:\Users\italo\Documents\Projects\MaisBarato\Mobile\MaisBaratoAdmin\node_modules\react-native-maps\lib\android\build\intermediates\library_manifest\release\AndroidManifest.xml:10:5-81
	android:name
		ADDED from [:react-native-maps] C:\Users\italo\Documents\Projects\MaisBarato\Mobile\MaisBaratoAdmin\node_modules\react-native-maps\lib\android\build\intermediates\library_manifest\release\AndroidManifest.xml:10:22-78
uses-permission#android.permission.ACCESS_NETWORK_STATE
ADDED from [com.google.android.gms:play-services-maps:16.1.0] C:\Users\italo\.gradle\caches\transforms-1\files-1.1\play-services-maps-16.1.0.aar\9d2c5276160a0cb056e7b12d57ed0998\AndroidManifest.xml:23:5-79
	android:name
		ADDED from [com.google.android.gms:play-services-maps:16.1.0] C:\Users\italo\.gradle\caches\transforms-1\files-1.1\play-services-maps-16.1.0.aar\9d2c5276160a0cb056e7b12d57ed0998\AndroidManifest.xml:23:22-76
uses-feature#0x00020000
ADDED from [com.google.android.gms:play-services-maps:16.1.0] C:\Users\italo\.gradle\caches\transforms-1\files-1.1\play-services-maps-16.1.0.aar\9d2c5276160a0cb056e7b12d57ed0998\AndroidManifest.xml:26:5-28:35
	android:glEsVersion
		ADDED from [com.google.android.gms:play-services-maps:16.1.0] C:\Users\italo\.gradle\caches\transforms-1\files-1.1\play-services-maps-16.1.0.aar\9d2c5276160a0cb056e7b12d57ed0998\AndroidManifest.xml:27:9-41
	android:required
		ADDED from [com.google.android.gms:play-services-maps:16.1.0] C:\Users\italo\.gradle\caches\transforms-1\files-1.1\play-services-maps-16.1.0.aar\9d2c5276160a0cb056e7b12d57ed0998\AndroidManifest.xml:28:9-32
uses-library#org.apache.http.legacy
ADDED from [com.google.android.gms:play-services-maps:16.1.0] C:\Users\italo\.gradle\caches\transforms-1\files-1.1\play-services-maps-16.1.0.aar\9d2c5276160a0cb056e7b12d57ed0998\AndroidManifest.xml:33:9-35:40
	android:required
		ADDED from [com.google.android.gms:play-services-maps:16.1.0] C:\Users\italo\.gradle\caches\transforms-1\files-1.1\play-services-maps-16.1.0.aar\9d2c5276160a0cb056e7b12d57ed0998\AndroidManifest.xml:35:13-37
	android:name
		ADDED from [com.google.android.gms:play-services-maps:16.1.0] C:\Users\italo\.gradle\caches\transforms-1\files-1.1\play-services-maps-16.1.0.aar\9d2c5276160a0cb056e7b12d57ed0998\AndroidManifest.xml:34:13-50
activity#com.google.android.gms.common.api.GoogleApiActivity
ADDED from [com.google.android.gms:play-services-base:16.1.0] C:\Users\italo\.gradle\caches\transforms-1\files-1.1\play-services-base-16.1.0.aar\d72cb6d45a857910f1ec0f387539ad8d\AndroidManifest.xml:23:9-26:75
	android:exported
		ADDED from [com.google.android.gms:play-services-base:16.1.0] C:\Users\italo\.gradle\caches\transforms-1\files-1.1\play-services-base-16.1.0.aar\d72cb6d45a857910f1ec0f387539ad8d\AndroidManifest.xml:25:13-37
	android:theme
		ADDED from [com.google.android.gms:play-services-base:16.1.0] C:\Users\italo\.gradle\caches\transforms-1\files-1.1\play-services-base-16.1.0.aar\d72cb6d45a857910f1ec0f387539ad8d\AndroidManifest.xml:26:13-72
	android:name
		ADDED from [com.google.android.gms:play-services-base:16.1.0] C:\Users\italo\.gradle\caches\transforms-1\files-1.1\play-services-base-16.1.0.aar\d72cb6d45a857910f1ec0f387539ad8d\AndroidManifest.xml:24:13-79
meta-data#com.google.android.gms.version
ADDED from [com.google.maps.android:android-maps-utils:0.5] C:\Users\italo\.gradle\caches\transforms-1\files-1.1\android-maps-utils-0.5.aar\b2dd3783cb595f0ef0bc1ba4ea808f37\AndroidManifest.xml:8:9-10:69
MERGED from [com.google.android.gms:play-services-basement:16.2.0] C:\Users\italo\.gradle\caches\transforms-1\files-1.1\play-services-basement-16.2.0.aar\c3854e9266c77c32b9742b08d65d10e0\AndroidManifest.xml:23:9-25:69
MERGED from [com.google.android.gms:play-services-basement:16.2.0] C:\Users\italo\.gradle\caches\transforms-1\files-1.1\play-services-basement-16.2.0.aar\c3854e9266c77c32b9742b08d65d10e0\AndroidManifest.xml:23:9-25:69
	android:value
		ADDED from [com.google.maps.android:android-maps-utils:0.5] C:\Users\italo\.gradle\caches\transforms-1\files-1.1\android-maps-utils-0.5.aar\b2dd3783cb595f0ef0bc1ba4ea808f37\AndroidManifest.xml:10:13-66
	android:name
		ADDED from [com.google.maps.android:android-maps-utils:0.5] C:\Users\italo\.gradle\caches\transforms-1\files-1.1\android-maps-utils-0.5.aar\b2dd3783cb595f0ef0bc1ba4ea808f37\AndroidManifest.xml:9:13-58
meta-data#android.support.VERSION
ADDED from [com.android.support:support-v4:26.1.0] C:\Users\italo\.gradle\caches\transforms-1\files-1.1\support-v4-26.1.0.aar\129ef014b9371f9d5c542ea8ab8521fa\AndroidManifest.xml:26:9-28:38
MERGED from [com.android.support:support-media-compat:26.1.0] C:\Users\italo\.gradle\caches\transforms-1\files-1.1\support-media-compat-26.1.0.aar\d64af4cdcdbe174b3a745c0d6a59e114\AndroidManifest.xml:26:9-28:38
MERGED from [com.android.support:support-media-compat:26.1.0] C:\Users\italo\.gradle\caches\transforms-1\files-1.1\support-media-compat-26.1.0.aar\d64af4cdcdbe174b3a745c0d6a59e114\AndroidManifest.xml:26:9-28:38
	android:value
		ADDED from [com.android.support:support-v4:26.1.0] C:\Users\italo\.gradle\caches\transforms-1\files-1.1\support-v4-26.1.0.aar\129ef014b9371f9d5c542ea8ab8521fa\AndroidManifest.xml:28:13-35
	android:name
		ADDED from [com.android.support:support-v4:26.1.0] C:\Users\italo\.gradle\caches\transforms-1\files-1.1\support-v4-26.1.0.aar\129ef014b9371f9d5c542ea8ab8521fa\AndroidManifest.xml:27:13-51
